{
	"oauth":{
		"google":{
			"appId":"",
			"appSecret":"",
			"appRedirect":"",
			"appName":"",
			"appScope":["email","profile"]
		},
		"facebook":{
			"appId":"",
			"appSecret":"",
			"appVersion":"v2.5",
			"appRedirect":""
		},
		"twitter":{
			"appId":"",
			"appSecret":"",
			"appRedirect":"",
			"appName":""
		}
	}

}
